{
    "groups": [
        {
            "name": "magnivot",
            "members": [ "mikmik", "shirshur", "gumigam", "efishuli", "nofieli" ]
        },
        {
            "name": "sre shalishut",
            "members": [ "mika", "noa", "adi" ]
        },
        {
            "name": "Alpha Team",
            "members": [ "GivenWand", "mikmik" ]
        }
    ]
}